<svg xmlns="http://www.w3.org/2000/svg" width="15" height="30" viewBox="0 0 15 30">
    <path fill="#333" fill-rule="evenodd" d="M9.54 30H3.18V14.998H0V9.83h3.179V6.726C3.179 2.509 4.973 0 10.074 0h4.245v5.171h-2.654c-1.985 0-2.116.722-2.116 2.07L9.54 9.83h4.808l-.563 5.17H9.54V30z"/>
</svg>
